CC329A4FB0E41392829505FEC07A7C345E86B06C freetrader@tuta.io
17D16F72C0091B1FED7795FBA9CA1D0EE3789741 sickpig@gmail.com
D465135F97D0047E18E99DC321810A542031C02C calin.culianu@gmail.com
BA342BF30FCB03D31C2EA57C33D777A4C467A4D1 blockparty-sh@yandex.com
